<svg xmlns="http://www.w3.org/2000/svg" width="15" height="18" viewBox="0 0 15 18">
    <path fill="#FFF" stroke="#263238" d="M13.997 2.039c0 .573-.466 1.039-1.04 1.039h-1.362L6.105 14.85H7.19c.575 0 1.04.466 1.04 1.04 0 .572-.465 1.038-1.04 1.038H2.448c-.573 0-1.039-.466-1.039-1.039s.466-1.039 1.039-1.039H3.81L9.3 3.078H8.215c-.575 0-1.039-.466-1.039-1.04C7.176 1.467 7.64 1 8.216 1h4.742c.573 0 1.039.466 1.039 1.039z"/>
</svg>
